Mineração de Textos - Uma Abordagem Tidy
…
original_books <- janeaustenr::austen_books() %>% 
  dplyr::group_by(book) %>% 
  dplyr::mutate(
    rn = dplyr::row_number(),
    chapter = stringr::str_detect(
      text,
      stringr::regex("^chapter [\\divxlc]", ignore_case = TRUE)
    ) %>% as.integer()
  ) %>% 
  dplyr::ungroup()

original_books

## # A tibble: 73,422 x 4
##    text                    book                   rn chapter
##    <chr>                   <fct>               <int>   <int>
##  1 "SENSE AND SENSIBILITY" Sense & Sensibility     1       0
##  2 ""                      Sense & Sensibility     2       0
##  3 "by Jane Austen"        Sense & Sensibility     3       0
##  4 ""                      Sense & Sensibility     4       0
##  5 "(1811)"                Sense & Sensibility     5       0
##  6 ""                      Sense & Sensibility     6       0
##  7 ""                      Sense & Sensibility     7       0
##  8 ""                      Sense & Sensibility     8       0
##  9 ""                      Sense & Sensibility     9       0
## 10 "CHAPTER 1"             Sense & Sensibility    10       1
## # … with 73,412 more rows

tidy_books <- original_books %>% 
  tidytext::unnest_tokens(word, text)

tidy_books

## # A tibble: 725,055 x 4
##    book                   rn chapter word       
##    <fct>               <int>   <int> <chr>      
##  1 Sense & Sensibility     1       0 sense      
##  2 Sense & Sensibility     1       0 and        
##  3 Sense & Sensibility     1       0 sensibility
##  4 Sense & Sensibility     3       0 by         
##  5 Sense & Sensibility     3       0 jane       
##  6 Sense & Sensibility     3       0 austen     
##  7 Sense & Sensibility     5       0 1811       
##  8 Sense & Sensibility    10       1 chapter    
##  9 Sense & Sensibility    10       1 1          
## 10 Sense & Sensibility    13       0 the        
## # … with 725,045 more rows

tidytext::stop_words

## # A tibble: 1,149 x 2
##    word        lexicon
##    <chr>       <chr>  
##  1 a           SMART  
##  2 a's         SMART  
##  3 able        SMART  
##  4 about       SMART  
##  5 above       SMART  
##  6 according   SMART  
##  7 accordingly SMART  
##  8 across      SMART  
##  9 actually    SMART  
## 10 after       SMART  
## # … with 1,139 more rows

tidy_books %<>% 
  dplyr::anti_join(tidytext::stop_words, by = c("word" = "word"))

tidy_books

## # A tibble: 217,609 x 4
##    book                   rn chapter word       
##    <fct>               <int>   <int> <chr>      
##  1 Sense & Sensibility     1       0 sense      
##  2 Sense & Sensibility     1       0 sensibility
##  3 Sense & Sensibility     3       0 jane       
##  4 Sense & Sensibility     3       0 austen     
##  5 Sense & Sensibility     5       0 1811       
##  6 Sense & Sensibility    10       1 chapter    
##  7 Sense & Sensibility    10       1 1          
##  8 Sense & Sensibility    13       0 family     
##  9 Sense & Sensibility    13       0 dashwood   
## 10 Sense & Sensibility    13       0 settled    
## # … with 217,599 more rows
…
2 Análise de sentimentos

tidytext::get_sentiments("afinn")

## # A tibble: 2,477 x 2
##    word       value
##    <chr>      <dbl>
##  1 abandon       -2
##  2 abandoned     -2
##  3 abandons      -2
##  4 abducted      -2
##  5 abduction     -2
##  6 abductions    -2
##  7 abhor         -3
##  8 abhorred      -3
##  9 abhorrent     -3
## 10 abhors        -3
## # … with 2,467 more rows

get_sentiments("bing")

## # A tibble: 6,786 x 2
##    word        sentiment
##    <chr>       <chr>    
##  1 2-faces     negative 
##  2 abnormal    negative 
##  3 abolish     negative 
##  4 abominable  negative 
##  5 abominably  negative 
##  6 abominate   negative 
##  7 abomination negative 
##  8 abort       negative 
##  9 aborted     negative 
## 10 aborts      negative 
## # … with 6,776 more rows

get_sentiments("nrc")

## # A tibble: 13,901 x 2
##    word        sentiment
##    <chr>       <chr>    
##  1 abacus      trust    
##  2 abandon     fear     
##  3 abandon     negative 
##  4 abandon     sadness  
##  5 abandoned   anger    
##  6 abandoned   fear     
##  7 abandoned   negative 
##  8 abandoned   sadness  
##  9 abandonment anger    
## 10 abandonment fear     
## # … with 13,891 more rows

tidy_books

## # A tibble: 217,609 x 4
##    book                   rn chapter word       
##    <fct>               <int>   <int> <chr>      
##  1 Sense & Sensibility     1       0 sense      
##  2 Sense & Sensibility     1       0 sensibility
##  3 Sense & Sensibility     3       0 jane       
##  4 Sense & Sensibility     3       0 austen     
##  5 Sense & Sensibility     5       0 1811       
##  6 Sense & Sensibility    10       1 chapter    
##  7 Sense & Sensibility    10       1 1          
##  8 Sense & Sensibility    13       0 family     
##  9 Sense & Sensibility    13       0 dashwood   
## 10 Sense & Sensibility    13       0 settled    
## # … with 217,599 more rows

nrc_joy <- tidytext::get_sentiments("nrc") %>% 
  dplyr::filter(sentiment == "joy")

tidy_books %>% 
  dplyr::filter(book=="Emma") %>% 
  dplyr::inner_join(nrc_joy) %>% 
  dplyr::count(word, sort=T)

## Joining, by = "word"

## # A tibble: 298 x 2
##    word          n
##    <chr>     <int>
##  1 friend      166
##  2 hope        143
##  3 happy       125
##  4 love        117
##  5 deal         92
##  6 found        92
##  7 happiness    76
##  8 pretty       68
##  9 true         66
## 10 comfort      65
## # … with 288 more rows
…
